set term png
set output "out.png"
set samples 100
set isosamples 100
set xyplane 0

set xlabel "STRIDES" font ", 16"
set ylabel "SIZE (KB, log_2)" font ", 16" 
set zlabel "MBs/sec" offset -3, 0 font ",16"
set view 60, 120 

set tics font ", 12"

set pm3d
splot [:15][4:17] "mountain.dat" u 1:(log($2)/log(2)):3 matrix nonuniform with lines lc 0 notitle

